…
``` r
names(egonetlist)
```

    [1] "ego"   "alter" "aatie"

``` r
egonetlist[["ego"]][, 1:5]
```

    # A tibble: 1,531 × 5
         .egoID   AGE  EDUC RACE  SEX   
          <int> <int> <int> <chr> <chr> 
     1 19850001    33    16 white male  
     2 19850002    49    19 white male  
     3 19850003    23    16 white female
     4 19850004    26    20 white female
     5 19850005    24    17 white female
     6 19850006    45    17 white male  
     7 19850007    44    18 white female
     8 19850008    56    12 white female
     9 19850009    85     7 white female
    10 19850010    65    12 white female
    # ℹ 1,521 more rows

``` r
egonetlist[["alter"]][, 1:5]
```

    # A tibble: 4,483 × 5
       .altID   .egoID   AGE  EDUC RACE 
        <int>    <int> <int> <dbl> <chr>
     1      1 19850001    32    18 white
     2      2 19850001    29    16 white
     3      3 19850001    32    18 white
     4      4 19850001    35    16 white
     5      5 19850001    29    13 white
     6      1 19850002    42    12 white
     7      2 19850002    44    18 white
     8      3 19850002    45    16 white
     9      4 19850002    40    12 white
    10      5 19850002    50    18 white
    # ℹ 4,473 more rows

``` r
egonetlist[["aatie"]]
```

    # A tibble: 4,880 × 4
         .egoID .srcID .tgtID WEIGHT
          <int>  <int>  <int>  <int>
     1 19850001      1      2      2
     2 19850001      1      3      1
     3 19850001      1      4      1
     4 19850001      1      5      1
     5 19850001      2      3      2
     6 19850001      2      4      2
     7 19850001      2      5      2
     8 19850001      3      4      1
     9 19850001      3      5      1
    10 19850001      4      5      1
    # ℹ 4,870 more rows
…
