…
``` r
available_tags(feature = "amenity")
```

    # A tibble: 137 × 2
       Key     Value          
       <chr>   <chr>          
     1 amenity animal_boarding
     2 amenity animal_breeding
     3 amenity animal_shelter 
     4 amenity animal_training
     5 amenity arts_centre    
     6 amenity atm            
     7 amenity baby_hatch     
     8 amenity baking_oven    
     9 amenity bank           
    10 amenity bar            
    # ℹ 127 more rows
…
           min      max
    x -106.882 -106.471
    y   34.947   35.218

# Roads

``` r
available_tags(feature = "highway")
```

    # A tibble: 57 × 2
       Key     Value              
       <chr>   <chr>              
     1 highway bridleway          
     2 highway bus_guideway       
     3 highway bus_stop           
     4 highway busway             
     5 highway construction       
     6 highway corridor           
     7 highway crossing           
     8 highway cycleway           
     9 highway cyclist_waiting_aid
    10 highway elevator           
    # ℹ 47 more rows
…
